…
``` r
animals_ms <- matrixset(msr = animals)
animals_ms
#> matrixset of 1 28 × 2 matrices
#> 
#> matrix_set: msr 
#> A 28 × 2 <dbl> matrix
#>                     body    brain
#> Mountain beaver     1.35     8.10
#>             ...      ...      ...
#>             Pig   192.00   180.00
#> 
#> 
#> row_info:
#> # A tibble: 28 × 1
#>    .rowname       
#>    <chr>          
#>  1 Mountain beaver
#>  2 Cow            
#>  3 Grey wolf      
#>  4 Goat           
#>  5 Guinea pig     
#>  6 Dipliodocus    
#>  7 Asian elephant 
#>  8 Donkey         
#>  9 Horse          
#> 10 Potar monkey   
#> # … with 18 more rows
…
``` r
as_matrixset(animals)
#> matrixset of 1 28 × 2 matrices
#> 
#> matrix_set: ..1 
#> A 28 × 2 <dbl> matrix
#>                     body    brain
#> Mountain beaver     1.35     8.10
#>             ...      ...      ...
#>             Pig   192.00   180.00
#> 
#> 
#> row_info:
#> # A tibble: 28 × 1
#>    .rowname       
#>    <chr>          
#>  1 Mountain beaver
#>  2 Cow            
#>  3 Grey wolf      
#>  4 Goat           
#>  5 Guinea pig     
#>  6 Dipliodocus    
#>  7 Asian elephant 
#>  8 Donkey         
#>  9 Horse          
#> 10 Potar monkey   
#> # … with 18 more rows
…
#> A 28 × 2 <dbl> matrix
#>                     body    brain
#> Mountain beaver     1.35     8.10
#>             ...      ...      ...
#>             Pig   192.00   180.00
#> matrix_set: log_msr 
#> A 28 × 2 <dbl> matrix
#>                  body brain
#> Mountain beaver  0.30  2.09
#>             ...   ...   ...
#>             Pig  5.26  5.19
#> 
#> 
#> row_info:
#> # A tibble: 28 × 1
#>    .rowname       
#>    <chr>          
#>  1 Mountain beaver
#>  2 Cow            
#>  3 Grey wolf      
#>  4 Goat           
#>  5 Guinea pig     
#>  6 Dipliodocus    
#>  7 Asian elephant 
#>  8 Donkey         
#>  9 Horse          
#> 10 Potar monkey   
#> # … with 18 more rows
…
#> A 28 × 2 <dbl> matrix
#>                     body    brain
#> Mountain beaver     1.35     8.10
#>             ...      ...      ...
#>             Pig   192.00   180.00
#> matrix_set: log_msr 
#> A 28 × 2 <dbl> matrix
#>                  body brain
#> Mountain beaver  0.30  2.09
#>             ...   ...   ...
#>             Pig  5.26  5.19
#> 
#> 
#> row_info:
#> # A tibble: 28 × 3
#>    .rowname        is_extinct class       
#>    <chr>           <lgl>      <chr>       
#>  1 Mountain beaver FALSE      Rodent      
#>  2 Cow             FALSE      Ruminant    
#>  3 Grey wolf       FALSE      Canine      
#>  4 Goat            FALSE      Ruminant    
#>  5 Guinea pig      FALSE      Rodent      
#>  6 Dipliodocus     TRUE       Dinosaurs   
#>  7 Asian elephant  FALSE      Elephantidae
#>  8 Donkey          FALSE      Equidae     
#>  9 Horse           FALSE      Equidae     
#> 10 Potar monkey    FALSE      Primate     
#> # … with 18 more rows
…
#> A 28 × 2 <dbl> matrix
#>                     body    brain
#> Mountain beaver     1.35     8.10
#>             ...      ...      ...
#>             Pig   192.00   180.00
#> matrix_set: log_msr 
#> A 28 × 2 <dbl> matrix
#>                  body brain
#> Mountain beaver  0.30  2.09
#>             ...   ...   ...
#>             Pig  5.26  5.19
#> 
#> 
#> row_info:
#> # A tibble: 28 × 3
#>    .rowname        is_extinct class       
#>    <chr>           <lgl>      <chr>       
#>  1 Mountain beaver FALSE      Rodent      
#>  2 Cow             FALSE      Ruminant    
#>  3 Grey wolf       FALSE      Canine      
#>  4 Goat            FALSE      Ruminant    
#>  5 Guinea pig      FALSE      Rodent      
#>  6 Dipliodocus     TRUE       Dinosaurs   
#>  7 Asian elephant  FALSE      Elephantidae
#>  8 Donkey          FALSE      Equidae     
#>  9 Horse           FALSE      Equidae     
#> 10 Potar monkey    FALSE      Primate     
#> # … with 18 more rows
…
