…
You can create the object and then do some operations.

``` r
library(matrixset)
animals_ms <- matrixset(msr = animals, row_info = animal_info, row_key = "Animal")
animals_ms %>% 
    apply_row_dfl(rg = ~ range(.i),
                  qt = ~ quantile(.i, probs = c(.25, .75)))   
#> $msr
#> # A tibble: 56 × 5
#>    .rowname        rg.name     rg qt.name     qt
#>    <chr>           <chr>    <dbl> <chr>    <dbl>
#>  1 Mountain beaver ..1       1.35 25%       3.04
#>  2 Mountain beaver ..2       8.1  75%       6.41
#>  3 Cow             ..1     423    25%     434.  
#>  4 Cow             ..2     465    75%     454.  
#>  5 Grey wolf       ..1      36.3  25%      57.1 
#>  6 Grey wolf       ..2     120.   75%      98.7 
#>  7 Goat            ..1      27.7  25%      49.5 
#>  8 Goat            ..2     115    75%      93.2 
#>  9 Guinea pig      ..1       1.04 25%       2.16
#> 10 Guinea pig      ..2       5.5  75%       4.38
#> # ℹ 46 more rows


animals_ms %>% 
    row_group_by(class) %>% 
    apply_column_dfl(avr = mean)
#> $msr
#> # A tibble: 22 × 3
#>    class        .colname     avr
#>    <chr>        <chr>      <dbl>
#>  1 Canine       body        36.3
#>  2 Canine       brain      120. 
#>  3 Dinosaurs    body     36033. 
#>  4 Dinosaurs    brain       91.5
#>  5 Elephantidae body      4600. 
#>  6 Elephantidae brain     5158. 
#>  7 Equidae      body       354. 
#>  8 Equidae      brain      537  
#>  9 Feline       body        51.6
#> 10 Feline       brain       91.3
#> # ℹ 12 more rows
```
